%YAML 1.1
%TAG !u! tag:unity3d.com,2011:
--- !u!1 &8502265806411224260
GameObject:
  m_ObjectHideFlags: 0
  m_CorrespondingSourceObject: {fileID: 0}
  m_PrefabInstance: {fileID: 0}
  m_PrefabAsset: {fileID: 0}
  serializedVersion: 6
  m_Component:
  - component: {fileID: 8502265806411224263}
  m_Layer: 0
  m_Name: Solider Fixing
  m_TagString: Untagged
  m_Icon: {fileID: 0}
  m_NavMeshLayer: 0
  m_StaticEditorFlags: 0
  m_IsActive: 1
--- !u!4 &8502265806411224263
Transform:
  m_ObjectHideFlags: 0
  m_CorrespondingSourceObject: {fileID: 0}
  m_PrefabInstance: {fileID: 0}
  m_PrefabAsset: {fileID: 0}
  m_GameObject: {fileID: 8502265806411224260}
  m_LocalRotation: {x: -0, y: -0.9914449, z: -0, w: -0.13052633}
  m_LocalPosition: {x: 33.47, y: 0.027622499, z: -18.31}
  m_LocalScale: {x: 1, y: 1, z: 1}
  m_Children:
  - {fileID: 8247398001018688859}
  m_Father: {fileID: 0}
  m_RootOrder: 0
  m_LocalEulerAnglesHint: {x: 0, y: -195, z: 0}
--- !u!1001 &8502265807420601008
PrefabInstance:
  m_ObjectHideFlags: 0
  serializedVersion: 2
  m_Modification:
    m_TransformParent: {fileID: 8502265806411224263}
    m_Modifications:
    - target: {fileID: -8679921383154817045, guid: 6d1845a8b82b48045990798561b54e75, type: 3}
      propertyPath: m_RootOrder
      value: 0
      objectReference: {fileID: 0}
    - target: {fileID: -8679921383154817045, guid: 6d1845a8b82b48045990798561b54e75, type: 3}
      propertyPath: m_LocalScale.x
      value: 44.24743
      objectReference: {fileID: 0}
    - target: {fileID: -8679921383154817045, guid: 6d1845a8b82b48045990798561b54e75, type: 3}
      propertyPath: m_LocalScale.y
      value: 44.24743
      objectReference: {fileID: 0}
    - target: {fileID: -8679921383154817045, guid: 6d1845a8b82b48045990798561b54e75, type: 3}
      propertyPath: m_LocalScale.z
      value: 44.24743
      objectReference: {fileID: 0}
    - target: {fileID: -8679921383154817045, guid: 6d1845a8b82b48045990798561b54e75, type: 3}
      propertyPath: m_LocalPosition.x
      value: 0
      objectReference: {fileID: 0}
    - target: {fileID: -8679921383154817045, guid: 6d1845a8b82b48045990798561b54e75, type: 3}
      propertyPath: m_LocalPosition.y
      value: 0
      objectReference: {fileID: 0}
    - target: {fileID: -8679921383154817045, guid: 6d1845a8b82b48045990798561b54e75, type: 3}
      propertyPath: m_LocalPosition.z
      value: 0
      objectReference: {fileID: 0}
    - target: {fileID: -8679921383154817045, guid: 6d1845a8b82b48045990798561b54e75, type: 3}
      propertyPath: m_LocalRotation.w
      value: 1
      objectReference: {fileID: 0}
    - target: {fileID: -8679921383154817045, guid: 6d1845a8b82b48045990798561b54e75, type: 3}
      propertyPath: m_LocalRotation.x
      value: 0
      objectReference: {fileID: 0}
    - target: {fileID: -8679921383154817045, guid: 6d1845a8b82b48045990798561b54e75, type: 3}
      propertyPath: m_LocalRotation.y
      value: 0
      objectReference: {fileID: 0}
    - target: {fileID: -8679921383154817045, guid: 6d1845a8b82b48045990798561b54e75, type: 3}
      propertyPath: m_LocalRotation.z
      value: 0
      objectReference: {fileID: 0}
    - target: {fileID: -8679921383154817045, guid: 6d1845a8b82b48045990798561b54e75, type: 3}
      propertyPath: m_LocalEulerAnglesHint.x
      value: 0
      objectReference: {fileID: 0}
    - target: {fileID: -8679921383154817045, guid: 6d1845a8b82b48045990798561b54e75, type: 3}
      propertyPath: m_LocalEulerAnglesHint.y
      value: 0
      objectReference: {fileID: 0}
    - target: {fileID: -8679921383154817045, guid: 6d1845a8b82b48045990798561b54e75, type: 3}
      propertyPath: m_LocalEulerAnglesHint.z
      value: 0
      objectReference: {fileID: 0}
    - target: {fileID: 919132149155446097, guid: 6d1845a8b82b48045990798561b54e75, type: 3}
      propertyPath: m_Name
      value: Looking Through Files Low
      objectReference: {fileID: 0}
    - target: {fileID: 5866666021909216657, guid: 6d1845a8b82b48045990798561b54e75, type: 3}
      propertyPath: m_Controller
      value: 
      objectReference: {fileID: 9100000, guid: 37520d458d1698a47a778607500ccdc8, type: 2}
    - target: {fileID: 8597865178428971248, guid: 6d1845a8b82b48045990798561b54e75, type: 3}
      propertyPath: m_Materials.Array.data[0]
      value: 
      objectReference: {fileID: 2100000, guid: 178d12feb291f0146a9ebc98162e13bf, type: 2}
    m_RemovedComponents: []
  m_SourcePrefab: {fileID: 100100000, guid: 6d1845a8b82b48045990798561b54e75, type: 3}
--- !u!4 &8247398001018688859 stripped
Transform:
  m_CorrespondingSourceObject: {fileID: -8679921383154817045, guid: 6d1845a8b82b48045990798561b54e75, type: 3}
  m_PrefabInstance: {fileID: 8502265807420601008}
  m_PrefabAsset: {fileID: 0}
