%YAML 1.1
%TAG !u! tag:unity3d.com,2011:
--- !u!114 &11400000
MonoBehaviour:
  m_ObjectHideFlags: 0
  m_CorrespondingSourceObject: {fileID: 0}
  m_PrefabInstance: {fileID: 0}
  m_PrefabAsset: {fileID: 0}
  m_GameObject: {fileID: 0}
  m_Enabled: 1
  m_EditorHideFlags: 0
  m_Script: {fileID: 11500000, guid: 9898f0ebced24e59acc923ba70d5e8e2, type: 3}
  m_Name: support_lv1
  m_EditorClassIdentifier: 
  enumValue: {fileID: 11400000, guid: 62a9fcc0485c4484d888f274d07b3643, type: 2}
  towerPrefab: {fileID: 3677258560958360516, guid: 0741f061fd63edf4181ef43865616e78, type: 3}
  displayName: <color=#AA0000>Support Tower
  description:
  - <color=#555555>Level:</color> <color=#AAAAAA>1
  - '<color=#555555>Damage: <color=#AAAAAA>1-3'
  - '<color=#555555>Attack Rate: <color=#AAAAAA>1s'
  - '<color=#555555>Range: <color=#AAAAAA>Average'
  - 
  - <color=#FF5555>Soliders block enemies
  forSell: 0
  price: 70
  instantBuild: 0
  upgradeTowers:
  - {fileID: 11400000, guid: 2c82f32473d1ef5428a9223c056673b5, type: 2}
  - {fileID: 11400000, guid: a83e7a6430a86d9429303006365f8cf6, type: 2}
