%YAML 1.1
%TAG !u! tag:unity3d.com,2011:
--- !u!1 &1811147651769711285
GameObject:
  m_ObjectHideFlags: 0
  m_CorrespondingSourceObject: {fileID: 0}
  m_PrefabInstance: {fileID: 0}
  m_PrefabAsset: {fileID: 0}
  serializedVersion: 6
  m_Component:
  - component: {fileID: 1811147651769711282}
  - component: {fileID: -2682901452219961417}
  m_Layer: 0
  m_Name: BloodFX Prefab
  m_TagString: Untagged
  m_Icon: {fileID: 0}
  m_NavMeshLayer: 0
  m_StaticEditorFlags: 0
  m_IsActive: 1
--- !u!4 &1811147651769711282
Transform:
  m_ObjectHideFlags: 0
  m_CorrespondingSourceObject: {fileID: 0}
  m_PrefabInstance: {fileID: 0}
  m_PrefabAsset: {fileID: 0}
  m_GameObject: {fileID: 1811147651769711285}
  m_LocalRotation: {x: 0, y: 0, z: 0, w: 1}
  m_LocalPosition: {x: 0, y: 0, z: 0}
  m_LocalScale: {x: 1, y: 1, z: 1}
  m_Children:
  - {fileID: 9210034235337416412}
  m_Father: {fileID: 0}
  m_RootOrder: 0
  m_LocalEulerAnglesHint: {x: 0, y: 0, z: 0}
--- !u!114 &-2682901452219961417
MonoBehaviour:
  m_ObjectHideFlags: 0
  m_CorrespondingSourceObject: {fileID: 0}
  m_PrefabInstance: {fileID: 0}
  m_PrefabAsset: {fileID: 0}
  m_GameObject: {fileID: 1811147651769711285}
  m_Enabled: 1
  m_EditorHideFlags: 0
  m_Script: {fileID: 11500000, guid: a402b1032f304bdaa091790d31b2fc3d, type: 3}
  m_Name: 
  m_EditorClassIdentifier: 
  particleType: {fileID: 11400000, guid: 495e6ef8d468c4d4d81f10b4430d6892, type: 2}
--- !u!1001 &2449158458527655774
PrefabInstance:
  m_ObjectHideFlags: 0
  serializedVersion: 2
  m_Modification:
    m_TransformParent: {fileID: 1811147651769711282}
    m_Modifications:
    - target: {fileID: 754955727101592833, guid: 02b35c9d651f38c4693b3dbf1b7caac3, type: 3}
      propertyPath: m_LocalPosition.y
      value: -1
      objectReference: {fileID: 0}
    - target: {fileID: 2140108152676304983, guid: 02b35c9d651f38c4693b3dbf1b7caac3, type: 3}
      propertyPath: m_Mesh
      value: 
      objectReference: {fileID: 10207, guid: 0000000000000000e000000000000000, type: 0}
    - target: {fileID: 2140108152676304983, guid: 02b35c9d651f38c4693b3dbf1b7caac3, type: 3}
      propertyPath: m_RenderMode
      value: 4
      objectReference: {fileID: 0}
    - target: {fileID: 2140108152676304983, guid: 02b35c9d651f38c4693b3dbf1b7caac3, type: 3}
      propertyPath: m_Materials.Array.size
      value: 2
      objectReference: {fileID: 0}
    - target: {fileID: 2140108152676304983, guid: 02b35c9d651f38c4693b3dbf1b7caac3, type: 3}
      propertyPath: m_Materials.Array.data[1]
      value: 
      objectReference: {fileID: 10754, guid: 0000000000000000f000000000000000, type: 0}
    - target: {fileID: 4213384224845080943, guid: 02b35c9d651f38c4693b3dbf1b7caac3, type: 3}
      propertyPath: TrailModule.enabled
      value: 1
      objectReference: {fileID: 0}
    - target: {fileID: 4213384224845080943, guid: 02b35c9d651f38c4693b3dbf1b7caac3, type: 3}
      propertyPath: InitialModule.size3D
      value: 0
      objectReference: {fileID: 0}
    - target: {fileID: 4213384224845080943, guid: 02b35c9d651f38c4693b3dbf1b7caac3, type: 3}
      propertyPath: ShapeModule.radius.value
      value: 0.64
      objectReference: {fileID: 0}
    - target: {fileID: 4213384224845080943, guid: 02b35c9d651f38c4693b3dbf1b7caac3, type: 3}
      propertyPath: ShapeModule.radiusThickness
      value: 0
      objectReference: {fileID: 0}
    - target: {fileID: 4213384224845080943, guid: 02b35c9d651f38c4693b3dbf1b7caac3, type: 3}
      propertyPath: TrailModule.lifetime.scalar
      value: 0.05
      objectReference: {fileID: 0}
    - target: {fileID: 4213384224845080943, guid: 02b35c9d651f38c4693b3dbf1b7caac3, type: 3}
      propertyPath: TrailModule.colorOverTrail.maxColor.b
      value: 0.19607843
      objectReference: {fileID: 0}
    - target: {fileID: 4213384224845080943, guid: 02b35c9d651f38c4693b3dbf1b7caac3, type: 3}
      propertyPath: TrailModule.colorOverTrail.maxColor.g
      value: 0.07058824
      objectReference: {fileID: 0}
    - target: {fileID: 4213384224845080943, guid: 02b35c9d651f38c4693b3dbf1b7caac3, type: 3}
      propertyPath: TrailModule.colorOverTrail.maxColor.r
      value: 0.79607844
      objectReference: {fileID: 0}
    - target: {fileID: 4213384224845080943, guid: 02b35c9d651f38c4693b3dbf1b7caac3, type: 3}
      propertyPath: TrailModule.widthOverTrail.minMaxState
      value: 1
      objectReference: {fileID: 0}
    - target: {fileID: 4213384224845080943, guid: 02b35c9d651f38c4693b3dbf1b7caac3, type: 3}
      propertyPath: EmissionModule.m_Bursts.Array.data[0].countCurve.scalar
      value: 15
      objectReference: {fileID: 0}
    - target: {fileID: 4213384224845080943, guid: 02b35c9d651f38c4693b3dbf1b7caac3, type: 3}
      propertyPath: TrailModule.widthOverTrail.maxCurve.m_Curve.Array.data[1].time
      value: 1
      objectReference: {fileID: 0}
    - target: {fileID: 4213384224845080943, guid: 02b35c9d651f38c4693b3dbf1b7caac3, type: 3}
      propertyPath: TrailModule.widthOverTrail.maxCurve.m_Curve.Array.data[1].value
      value: 0
      objectReference: {fileID: 0}
    - target: {fileID: 5292177086255406731, guid: 02b35c9d651f38c4693b3dbf1b7caac3, type: 3}
      propertyPath: m_Name
      value: ParticleFX
      objectReference: {fileID: 0}
    - target: {fileID: 6786280270297708930, guid: 02b35c9d651f38c4693b3dbf1b7caac3, type: 3}
      propertyPath: m_RootOrder
      value: 0
      objectReference: {fileID: 0}
    - target: {fileID: 6786280270297708930, guid: 02b35c9d651f38c4693b3dbf1b7caac3, type: 3}
      propertyPath: m_LocalPosition.x
      value: 0
      objectReference: {fileID: 0}
    - target: {fileID: 6786280270297708930, guid: 02b35c9d651f38c4693b3dbf1b7caac3, type: 3}
      propertyPath: m_LocalPosition.y
      value: 1
      objectReference: {fileID: 0}
    - target: {fileID: 6786280270297708930, guid: 02b35c9d651f38c4693b3dbf1b7caac3, type: 3}
      propertyPath: m_LocalPosition.z
      value: 0
      objectReference: {fileID: 0}
    - target: {fileID: 6786280270297708930, guid: 02b35c9d651f38c4693b3dbf1b7caac3, type: 3}
      propertyPath: m_LocalRotation.w
      value: 1
      objectReference: {fileID: 0}
    - target: {fileID: 6786280270297708930, guid: 02b35c9d651f38c4693b3dbf1b7caac3, type: 3}
      propertyPath: m_LocalRotation.x
      value: 0
      objectReference: {fileID: 0}
    - target: {fileID: 6786280270297708930, guid: 02b35c9d651f38c4693b3dbf1b7caac3, type: 3}
      propertyPath: m_LocalRotation.y
      value: 0
      objectReference: {fileID: 0}
    - target: {fileID: 6786280270297708930, guid: 02b35c9d651f38c4693b3dbf1b7caac3, type: 3}
      propertyPath: m_LocalRotation.z
      value: 0
      objectReference: {fileID: 0}
    - target: {fileID: 6786280270297708930, guid: 02b35c9d651f38c4693b3dbf1b7caac3, type: 3}
      propertyPath: m_LocalEulerAnglesHint.x
      value: -90
      objectReference: {fileID: 0}
    - target: {fileID: 6786280270297708930, guid: 02b35c9d651f38c4693b3dbf1b7caac3, type: 3}
      propertyPath: m_LocalEulerAnglesHint.y
      value: 0
      objectReference: {fileID: 0}
    - target: {fileID: 6786280270297708930, guid: 02b35c9d651f38c4693b3dbf1b7caac3, type: 3}
      propertyPath: m_LocalEulerAnglesHint.z
      value: 0
      objectReference: {fileID: 0}
    m_RemovedComponents: []
  m_SourcePrefab: {fileID: 100100000, guid: 02b35c9d651f38c4693b3dbf1b7caac3, type: 3}
--- !u!4 &9210034235337416412 stripped
Transform:
  m_CorrespondingSourceObject: {fileID: 6786280270297708930, guid: 02b35c9d651f38c4693b3dbf1b7caac3, type: 3}
  m_PrefabInstance: {fileID: 2449158458527655774}
  m_PrefabAsset: {fileID: 0}
