%YAML 1.1
%TAG !u! tag:unity3d.com,2011:
--- !u!1 &1811147651769711285
GameObject:
  m_ObjectHideFlags: 0
  m_CorrespondingSourceObject: {fileID: 0}
  m_PrefabInstance: {fileID: 0}
  m_PrefabAsset: {fileID: 0}
  serializedVersion: 6
  m_Component:
  - component: {fileID: 1811147651769711282}
  - component: {fileID: -2682901452219961417}
  m_Layer: 0
  m_Name: GroundFX Prefab
  m_TagString: Untagged
  m_Icon: {fileID: 0}
  m_NavMeshLayer: 0
  m_StaticEditorFlags: 0
  m_IsActive: 1
--- !u!4 &1811147651769711282
Transform:
  m_ObjectHideFlags: 0
  m_CorrespondingSourceObject: {fileID: 0}
  m_PrefabInstance: {fileID: 0}
  m_PrefabAsset: {fileID: 0}
  m_GameObject: {fileID: 1811147651769711285}
  m_LocalRotation: {x: 0, y: 0, z: 0, w: 1}
  m_LocalPosition: {x: 0, y: 0, z: 0}
  m_LocalScale: {x: 1, y: 1, z: 1}
  m_Children:
  - {fileID: 8770597890778586856}
  m_Father: {fileID: 0}
  m_RootOrder: 0
  m_LocalEulerAnglesHint: {x: 0, y: 0, z: 0}
--- !u!114 &-2682901452219961417
MonoBehaviour:
  m_ObjectHideFlags: 0
  m_CorrespondingSourceObject: {fileID: 0}
  m_PrefabInstance: {fileID: 0}
  m_PrefabAsset: {fileID: 0}
  m_GameObject: {fileID: 1811147651769711285}
  m_Enabled: 1
  m_EditorHideFlags: 0
  m_Script: {fileID: 11500000, guid: a402b1032f304bdaa091790d31b2fc3d, type: 3}
  m_Name: 
  m_EditorClassIdentifier: 
  particleType: {fileID: 11400000, guid: e34bcb268d961544aaf6f6dac0bf3f2b, type: 2}
--- !u!1001 &2853832610058332010
PrefabInstance:
  m_ObjectHideFlags: 0
  serializedVersion: 2
  m_Modification:
    m_TransformParent: {fileID: 1811147651769711282}
    m_Modifications:
    - target: {fileID: 2140108152676304983, guid: 02b35c9d651f38c4693b3dbf1b7caac3, type: 3}
      propertyPath: m_Mesh
      value: 
      objectReference: {fileID: 10207, guid: 0000000000000000e000000000000000, type: 0}
    - target: {fileID: 2140108152676304983, guid: 02b35c9d651f38c4693b3dbf1b7caac3, type: 3}
      propertyPath: m_RenderMode
      value: 0
      objectReference: {fileID: 0}
    - target: {fileID: 2140108152676304983, guid: 02b35c9d651f38c4693b3dbf1b7caac3, type: 3}
      propertyPath: m_Materials.Array.data[0]
      value: 
      objectReference: {fileID: 10754, guid: 0000000000000000f000000000000000, type: 0}
    - target: {fileID: 4213384224845080943, guid: 02b35c9d651f38c4693b3dbf1b7caac3, type: 3}
      propertyPath: looping
      value: 0
      objectReference: {fileID: 0}
    - target: {fileID: 4213384224845080943, guid: 02b35c9d651f38c4693b3dbf1b7caac3, type: 3}
      propertyPath: ShapeModule.type
      value: 4
      objectReference: {fileID: 0}
    - target: {fileID: 4213384224845080943, guid: 02b35c9d651f38c4693b3dbf1b7caac3, type: 3}
      propertyPath: ColorModule.enabled
      value: 1
      objectReference: {fileID: 0}
    - target: {fileID: 4213384224845080943, guid: 02b35c9d651f38c4693b3dbf1b7caac3, type: 3}
      propertyPath: CollisionModule.type
      value: 1
      objectReference: {fileID: 0}
    - target: {fileID: 4213384224845080943, guid: 02b35c9d651f38c4693b3dbf1b7caac3, type: 3}
      propertyPath: ShapeModule.radius.value
      value: 0.09
      objectReference: {fileID: 0}
    - target: {fileID: 4213384224845080943, guid: 02b35c9d651f38c4693b3dbf1b7caac3, type: 3}
      propertyPath: ShapeModule.radiusThickness
      value: 1
      objectReference: {fileID: 0}
    - target: {fileID: 4213384224845080943, guid: 02b35c9d651f38c4693b3dbf1b7caac3, type: 3}
      propertyPath: InitialModule.startSize.scalar
      value: 0.05
      objectReference: {fileID: 0}
    - target: {fileID: 4213384224845080943, guid: 02b35c9d651f38c4693b3dbf1b7caac3, type: 3}
      propertyPath: InitialModule.startSpeed.scalar
      value: 5
      objectReference: {fileID: 0}
    - target: {fileID: 4213384224845080943, guid: 02b35c9d651f38c4693b3dbf1b7caac3, type: 3}
      propertyPath: InitialModule.startSize.minScalar
      value: 0.01
      objectReference: {fileID: 0}
    - target: {fileID: 4213384224845080943, guid: 02b35c9d651f38c4693b3dbf1b7caac3, type: 3}
      propertyPath: InitialModule.startSpeed.minScalar
      value: 1
      objectReference: {fileID: 0}
    - target: {fileID: 4213384224845080943, guid: 02b35c9d651f38c4693b3dbf1b7caac3, type: 3}
      propertyPath: InitialModule.startColor.maxColor.b
      value: 1
      objectReference: {fileID: 0}
    - target: {fileID: 4213384224845080943, guid: 02b35c9d651f38c4693b3dbf1b7caac3, type: 3}
      propertyPath: InitialModule.startColor.maxColor.g
      value: 1
      objectReference: {fileID: 0}
    - target: {fileID: 4213384224845080943, guid: 02b35c9d651f38c4693b3dbf1b7caac3, type: 3}
      propertyPath: InitialModule.startColor.maxColor.r
      value: 1
      objectReference: {fileID: 0}
    - target: {fileID: 4213384224845080943, guid: 02b35c9d651f38c4693b3dbf1b7caac3, type: 3}
      propertyPath: InitialModule.startSize.minMaxState
      value: 3
      objectReference: {fileID: 0}
    - target: {fileID: 4213384224845080943, guid: 02b35c9d651f38c4693b3dbf1b7caac3, type: 3}
      propertyPath: InitialModule.gravityModifier.scalar
      value: 1.3
      objectReference: {fileID: 0}
    - target: {fileID: 4213384224845080943, guid: 02b35c9d651f38c4693b3dbf1b7caac3, type: 3}
      propertyPath: InitialModule.startSizeY.minMaxState
      value: 3
      objectReference: {fileID: 0}
    - target: {fileID: 4213384224845080943, guid: 02b35c9d651f38c4693b3dbf1b7caac3, type: 3}
      propertyPath: InitialModule.startSizeZ.minMaxState
      value: 3
      objectReference: {fileID: 0}
    - target: {fileID: 4213384224845080943, guid: 02b35c9d651f38c4693b3dbf1b7caac3, type: 3}
      propertyPath: ColorModule.gradient.maxGradient.atime1
      value: 62451
      objectReference: {fileID: 0}
    - target: {fileID: 4213384224845080943, guid: 02b35c9d651f38c4693b3dbf1b7caac3, type: 3}
      propertyPath: ColorModule.gradient.maxGradient.atime2
      value: 65535
      objectReference: {fileID: 0}
    - target: {fileID: 4213384224845080943, guid: 02b35c9d651f38c4693b3dbf1b7caac3, type: 3}
      propertyPath: ColorModule.gradient.maxGradient.ctime0
      value: 771
      objectReference: {fileID: 0}
    - target: {fileID: 4213384224845080943, guid: 02b35c9d651f38c4693b3dbf1b7caac3, type: 3}
      propertyPath: ColorModule.gradient.maxGradient.ctime1
      value: 2506
      objectReference: {fileID: 0}
    - target: {fileID: 4213384224845080943, guid: 02b35c9d651f38c4693b3dbf1b7caac3, type: 3}
      propertyPath: ColorModule.gradient.maxGradient.ctime2
      value: 16577
      objectReference: {fileID: 0}
    - target: {fileID: 4213384224845080943, guid: 02b35c9d651f38c4693b3dbf1b7caac3, type: 3}
      propertyPath: ColorModule.gradient.maxGradient.ctime3
      value: 36430
      objectReference: {fileID: 0}
    - target: {fileID: 4213384224845080943, guid: 02b35c9d651f38c4693b3dbf1b7caac3, type: 3}
      propertyPath: ColorModule.gradient.maxGradient.ctime4
      value: 65535
      objectReference: {fileID: 0}
    - target: {fileID: 4213384224845080943, guid: 02b35c9d651f38c4693b3dbf1b7caac3, type: 3}
      propertyPath: ColorModule.gradient.maxGradient.ctime5
      value: 65535
      objectReference: {fileID: 0}
    - target: {fileID: 4213384224845080943, guid: 02b35c9d651f38c4693b3dbf1b7caac3, type: 3}
      propertyPath: ColorModule.gradient.maxGradient.key0.b
      value: 0.7028302
      objectReference: {fileID: 0}
    - target: {fileID: 4213384224845080943, guid: 02b35c9d651f38c4693b3dbf1b7caac3, type: 3}
      propertyPath: ColorModule.gradient.maxGradient.key0.g
      value: 0.9504717
      objectReference: {fileID: 0}
    - target: {fileID: 4213384224845080943, guid: 02b35c9d651f38c4693b3dbf1b7caac3, type: 3}
      propertyPath: ColorModule.gradient.maxGradient.key0.r
      value: 1
      objectReference: {fileID: 0}
    - target: {fileID: 4213384224845080943, guid: 02b35c9d651f38c4693b3dbf1b7caac3, type: 3}
      propertyPath: ColorModule.gradient.maxGradient.key1.b
      value: 0
      objectReference: {fileID: 0}
    - target: {fileID: 4213384224845080943, guid: 02b35c9d651f38c4693b3dbf1b7caac3, type: 3}
      propertyPath: ColorModule.gradient.maxGradient.key1.g
      value: 0.871447
      objectReference: {fileID: 0}
    - target: {fileID: 4213384224845080943, guid: 02b35c9d651f38c4693b3dbf1b7caac3, type: 3}
      propertyPath: ColorModule.gradient.maxGradient.key1.r
      value: 1
      objectReference: {fileID: 0}
    - target: {fileID: 4213384224845080943, guid: 02b35c9d651f38c4693b3dbf1b7caac3, type: 3}
      propertyPath: ColorModule.gradient.maxGradient.key2.a
      value: 0.11372549
      objectReference: {fileID: 0}
    - target: {fileID: 4213384224845080943, guid: 02b35c9d651f38c4693b3dbf1b7caac3, type: 3}
      propertyPath: ColorModule.gradient.maxGradient.key2.b
      value: 0
      objectReference: {fileID: 0}
    - target: {fileID: 4213384224845080943, guid: 02b35c9d651f38c4693b3dbf1b7caac3, type: 3}
      propertyPath: ColorModule.gradient.maxGradient.key2.g
      value: 0.34672612
      objectReference: {fileID: 0}
    - target: {fileID: 4213384224845080943, guid: 02b35c9d651f38c4693b3dbf1b7caac3, type: 3}
      propertyPath: ColorModule.gradient.maxGradient.key2.r
      value: 0.93650836
      objectReference: {fileID: 0}
    - target: {fileID: 4213384224845080943, guid: 02b35c9d651f38c4693b3dbf1b7caac3, type: 3}
      propertyPath: ColorModule.gradient.maxGradient.key3.b
      value: 0
      objectReference: {fileID: 0}
    - target: {fileID: 4213384224845080943, guid: 02b35c9d651f38c4693b3dbf1b7caac3, type: 3}
      propertyPath: ColorModule.gradient.maxGradient.key3.g
      value: 0.12634076
      objectReference: {fileID: 0}
    - target: {fileID: 4213384224845080943, guid: 02b35c9d651f38c4693b3dbf1b7caac3, type: 3}
      propertyPath: ColorModule.gradient.maxGradient.key3.r
      value: 0.3773585
      objectReference: {fileID: 0}
    - target: {fileID: 4213384224845080943, guid: 02b35c9d651f38c4693b3dbf1b7caac3, type: 3}
      propertyPath: ColorModule.gradient.maxGradient.key4.g
      value: 0
      objectReference: {fileID: 0}
    - target: {fileID: 4213384224845080943, guid: 02b35c9d651f38c4693b3dbf1b7caac3, type: 3}
      propertyPath: ColorModule.gradient.maxGradient.key4.r
      value: 0
      objectReference: {fileID: 0}
    - target: {fileID: 4213384224845080943, guid: 02b35c9d651f38c4693b3dbf1b7caac3, type: 3}
      propertyPath: ColorModule.gradient.maxGradient.key5.b
      value: 0.03773582
      objectReference: {fileID: 0}
    - target: {fileID: 4213384224845080943, guid: 02b35c9d651f38c4693b3dbf1b7caac3, type: 3}
      propertyPath: ColorModule.gradient.maxGradient.key5.g
      value: 0.03773582
      objectReference: {fileID: 0}
    - target: {fileID: 4213384224845080943, guid: 02b35c9d651f38c4693b3dbf1b7caac3, type: 3}
      propertyPath: ColorModule.gradient.maxGradient.key5.r
      value: 0.03773582
      objectReference: {fileID: 0}
    - target: {fileID: 4213384224845080943, guid: 02b35c9d651f38c4693b3dbf1b7caac3, type: 3}
      propertyPath: ColorModule.gradient.maxGradient.m_NumAlphaKeys
      value: 3
      objectReference: {fileID: 0}
    - target: {fileID: 4213384224845080943, guid: 02b35c9d651f38c4693b3dbf1b7caac3, type: 3}
      propertyPath: ColorModule.gradient.maxGradient.m_NumColorKeys
      value: 5
      objectReference: {fileID: 0}
    - target: {fileID: 5292177086255406731, guid: 02b35c9d651f38c4693b3dbf1b7caac3, type: 3}
      propertyPath: m_Name
      value: ParticleFX
      objectReference: {fileID: 0}
    - target: {fileID: 6786280270297708930, guid: 02b35c9d651f38c4693b3dbf1b7caac3, type: 3}
      propertyPath: m_RootOrder
      value: 0
      objectReference: {fileID: 0}
    - target: {fileID: 6786280270297708930, guid: 02b35c9d651f38c4693b3dbf1b7caac3, type: 3}
      propertyPath: m_LocalPosition.x
      value: 0
      objectReference: {fileID: 0}
    - target: {fileID: 6786280270297708930, guid: 02b35c9d651f38c4693b3dbf1b7caac3, type: 3}
      propertyPath: m_LocalPosition.y
      value: 0
      objectReference: {fileID: 0}
    - target: {fileID: 6786280270297708930, guid: 02b35c9d651f38c4693b3dbf1b7caac3, type: 3}
      propertyPath: m_LocalPosition.z
      value: 0
      objectReference: {fileID: 0}
    - target: {fileID: 6786280270297708930, guid: 02b35c9d651f38c4693b3dbf1b7caac3, type: 3}
      propertyPath: m_LocalRotation.w
      value: 0.7071068
      objectReference: {fileID: 0}
    - target: {fileID: 6786280270297708930, guid: 02b35c9d651f38c4693b3dbf1b7caac3, type: 3}
      propertyPath: m_LocalRotation.x
      value: -0.70710677
      objectReference: {fileID: 0}
    - target: {fileID: 6786280270297708930, guid: 02b35c9d651f38c4693b3dbf1b7caac3, type: 3}
      propertyPath: m_LocalRotation.y
      value: -0
      objectReference: {fileID: 0}
    - target: {fileID: 6786280270297708930, guid: 02b35c9d651f38c4693b3dbf1b7caac3, type: 3}
      propertyPath: m_LocalRotation.z
      value: -0
      objectReference: {fileID: 0}
    - target: {fileID: 6786280270297708930, guid: 02b35c9d651f38c4693b3dbf1b7caac3, type: 3}
      propertyPath: m_LocalEulerAnglesHint.x
      value: -90
      objectReference: {fileID: 0}
    - target: {fileID: 6786280270297708930, guid: 02b35c9d651f38c4693b3dbf1b7caac3, type: 3}
      propertyPath: m_LocalEulerAnglesHint.y
      value: 0
      objectReference: {fileID: 0}
    - target: {fileID: 6786280270297708930, guid: 02b35c9d651f38c4693b3dbf1b7caac3, type: 3}
      propertyPath: m_LocalEulerAnglesHint.z
      value: 0
      objectReference: {fileID: 0}
    m_RemovedComponents: []
  m_SourcePrefab: {fileID: 100100000, guid: 02b35c9d651f38c4693b3dbf1b7caac3, type: 3}
--- !u!4 &8770597890778586856 stripped
Transform:
  m_CorrespondingSourceObject: {fileID: 6786280270297708930, guid: 02b35c9d651f38c4693b3dbf1b7caac3, type: 3}
  m_PrefabInstance: {fileID: 2853832610058332010}
  m_PrefabAsset: {fileID: 0}
