%YAML 1.1
%TAG !u! tag:unity3d.com,2011:
--- !u!1 &1071147675740036614
GameObject:
  m_ObjectHideFlags: 0
  m_CorrespondingSourceObject: {fileID: 0}
  m_PrefabInstance: {fileID: 0}
  m_PrefabAsset: {fileID: 0}
  serializedVersion: 6
  m_Component:
  - component: {fileID: 1071147675740036616}
  - component: {fileID: 1071147675740036617}
  m_Layer: 0
  m_Name: SoundInstance
  m_TagString: Untagged
  m_Icon: {fileID: 0}
  m_NavMeshLayer: 0
  m_StaticEditorFlags: 0
  m_IsActive: 1
--- !u!4 &1071147675740036616
Transform:
  m_ObjectHideFlags: 0
  m_CorrespondingSourceObject: {fileID: 0}
  m_PrefabInstance: {fileID: 0}
  m_PrefabAsset: {fileID: 0}
  m_GameObject: {fileID: 1071147675740036614}
  m_LocalRotation: {x: 0, y: 0, z: 0, w: 1}
  m_LocalPosition: {x: 0, y: 0, z: 0}
  m_LocalScale: {x: 1, y: 1, z: 1}
  m_Children: []
  m_Father: {fileID: 0}
  m_RootOrder: 0
  m_LocalEulerAnglesHint: {x: 0, y: 0, z: 0}
--- !u!114 &1071147675740036617
MonoBehaviour:
  m_ObjectHideFlags: 0
  m_CorrespondingSourceObject: {fileID: 0}
  m_PrefabInstance: {fileID: 0}
  m_PrefabAsset: {fileID: 0}
  m_GameObject: {fileID: 1071147675740036614}
  m_Enabled: 1
  m_EditorHideFlags: 0
  m_Script: {fileID: 11500000, guid: f6636a5c1133471084bb709b629509c0, type: 3}
  m_Name: 
  m_EditorClassIdentifier: 
  soundData:
  - soundType: {fileID: 11400000, guid: 939559cfc76238a449334b4626b0b7a3, type: 2}
    sounds:
    - {fileID: 8300000, guid: 974fea56e0891bb41a1861d274be3bbf, type: 3}
    - {fileID: 8300000, guid: 854aa08cc1c24c145b51e7e97d86abe5, type: 3}
  - soundType: {fileID: 11400000, guid: 1eb00286d3297d74682ae7a50a7c2ff6, type: 2}
    sounds:
    - {fileID: 8300000, guid: ea4ec7e6d4298784a9b0ee978f9c39a4, type: 3}
    - {fileID: 8300000, guid: 146f18e3a8ba83b46b462af891b906f0, type: 3}
    - {fileID: 8300000, guid: a6584294ed8ad0743a68a4365c275990, type: 3}
    - {fileID: 8300000, guid: f803aa76d688ee54e983ef4760e1bc95, type: 3}
    - {fileID: 8300000, guid: a099863f423da304da73b78b3c1214f6, type: 3}
  - soundType: {fileID: 11400000, guid: 64dad472f9e46c64c937e85bf2149bcc, type: 2}
    sounds:
    - {fileID: 8300000, guid: d03854ac2c799c84e88a1c515295364c, type: 3}
    - {fileID: 8300000, guid: 03e8860111775834d93f7ecd95849e1a, type: 3}
    - {fileID: 8300000, guid: aba2918e4a1ca26439ab52d652072e0b, type: 3}
    - {fileID: 8300000, guid: b816ef01a22fa9441973ea2571a572f7, type: 3}
    - {fileID: 8300000, guid: 14f5e1719b43d9a48876fef02ceb1ccd, type: 3}
  - soundType: {fileID: 11400000, guid: dc99e157259a0564980369afe56e6f16, type: 2}
    sounds:
    - {fileID: 8300000, guid: a62107f0af3edd6458c80a83b1ceba62, type: 3}
  - soundType: {fileID: 11400000, guid: 61aa751d001190142b955de3d67021dd, type: 2}
    sounds:
    - {fileID: 8300000, guid: ba2c751cbe6cc9d46b8cc93ef2b340b0, type: 3}
  - soundType: {fileID: 11400000, guid: c2ecd04421271294fa386bc92b9a4f2c, type: 2}
    sounds:
    - {fileID: 8300000, guid: 49dfa7fa082042a4b92ff5deb4d6f4e6, type: 3}
    - {fileID: 8300000, guid: 89aa2887c5df9124a8b7316e21274e44, type: 3}
    - {fileID: 8300000, guid: eccca2768e2b1bb41973496d26503dd5, type: 3}
  - soundType: {fileID: 11400000, guid: c9c4606138e58b04da7b2f8ce47627b0, type: 2}
    sounds:
    - {fileID: 8300000, guid: e73fcbb0c4d789a4fbc5329265b6e529, type: 3}
    - {fileID: 8300000, guid: 7cee901f060522c4892d52070e2482cc, type: 3}
    - {fileID: 8300000, guid: e101fe115d7e3dd4c9dd5c97c3bfd16f, type: 3}
  - soundType: {fileID: 11400000, guid: 6c6b63ea607a87448884dbfdb64873e8, type: 2}
    sounds:
    - {fileID: 8300000, guid: 1e6fe7abaef681f40811e65f8cc58b4f, type: 3}
    - {fileID: 8300000, guid: 75c165115d51cae4799f0c9fa9ad1911, type: 3}
    - {fileID: 8300000, guid: 7d7698dbe9e3a62408e1f1d5fb6cedd0, type: 3}
    - {fileID: 8300000, guid: d03cf3fdda217974193b4b1c12442d99, type: 3}
  - soundType: {fileID: 11400000, guid: 17748ecaa9386c64fa29576ab47600f3, type: 2}
    sounds:
    - {fileID: 8300000, guid: d68f9380adda47d46abdf55b96f6862c, type: 3}
  - soundType: {fileID: 11400000, guid: 94b67a8be7ed25240a4bf96626087c86, type: 2}
    sounds:
    - {fileID: 8300000, guid: 0b22e644d7f2ea34bb1fa18b8dc7d49e, type: 3}
  - soundType: {fileID: 11400000, guid: 1a199ae01e7cd3e4ea3df0a1ae738c70, type: 2}
    sounds:
    - {fileID: 8300000, guid: 0e0a8f9d9aba6e644a921f7e97515973, type: 3}
  - soundType: {fileID: 11400000, guid: c9bd0ab89f041b043bf1435b76f9e047, type: 2}
    sounds:
    - {fileID: 8300000, guid: 59e6a77b5bacc1e4b8cc90b9d4bf40f5, type: 3}
    - {fileID: 8300000, guid: e17f103ffd32ab74891e5c12e48af41f, type: 3}
    - {fileID: 8300000, guid: 2fc37b73d0ca6ae49b001c2abe5ac54d, type: 3}
    - {fileID: 8300000, guid: 8659631c98d8a0240a9b1d9b660f7dde, type: 3}
  - soundType: {fileID: 11400000, guid: 8b35dd5f1087448439d122cfaf4efd35, type: 2}
    sounds:
    - {fileID: 8300000, guid: a85d552434e660b4595f004d900d8282, type: 3}
  - soundType: {fileID: 11400000, guid: 6d73c12d7a73cf147ac04bf84698bfab, type: 2}
    sounds:
    - {fileID: 8300000, guid: 0e0a8f9d9aba6e644a921f7e97515973, type: 3}
  - soundType: {fileID: 11400000, guid: 5cb90fb8f251b4642a9278ae2dbd83f7, type: 2}
    sounds:
    - {fileID: 8300000, guid: a85d552434e660b4595f004d900d8282, type: 3}
  - soundType: {fileID: 11400000, guid: 5550e2a0d9454bb4fbdd325a8fcb13eb, type: 2}
    sounds:
    - {fileID: 8300000, guid: b992da8e0c39917498420f20ca18deaa, type: 3}
  - soundType: {fileID: 11400000, guid: deac5fd246cfee842b1d3a75ca5a7ebd, type: 2}
    sounds:
    - {fileID: 8300000, guid: 5ce4fe8486b3d1f459e2edef29367fa5, type: 3}
    - {fileID: 8300000, guid: a27ba9a06cd17414ca239c9d94b7cd53, type: 3}
    - {fileID: 8300000, guid: 6260d0255bb7dd344a874905cdad4547, type: 3}
    - {fileID: 8300000, guid: c2964c6e9fa99d64fbe948be8210af1c, type: 3}
    - {fileID: 8300000, guid: cee86d497a1dadb46836c61361cb1adc, type: 3}
    - {fileID: 8300000, guid: 92d0cf6d8cc5d1740a8960c16da5a052, type: 3}
    - {fileID: 8300000, guid: 853c4e2bc89b7d14db07bc2cfc1953ba, type: 3}
    - {fileID: 8300000, guid: bbbec83c0bff57e44a899e62998fd83e, type: 3}
  - soundType: {fileID: 11400000, guid: 8d0ec77b808d8744c80cbb7d9067944e, type: 2}
    sounds:
    - {fileID: 8300000, guid: 966f2964937dd894da8a6c5e860424f6, type: 3}
    - {fileID: 8300000, guid: 12261fa436b10ad4ea48dbb09eaf8b1d, type: 3}
    - {fileID: 8300000, guid: f0d10a3eab3199945b5a9e764b0a90f1, type: 3}
    - {fileID: 8300000, guid: 82c2c13b1140b544690dee433b6a7d94, type: 3}
    - {fileID: 8300000, guid: a0b0e479c3db81945b1595646e131244, type: 3}
    - {fileID: 8300000, guid: 4348043300650fa48bdfdbdf289558a9, type: 3}
    - {fileID: 8300000, guid: 3789ff384f2cf5f4387a2113068b8bd0, type: 3}
    - {fileID: 8300000, guid: 760613f4295cc634a82ade0d025b04b5, type: 3}
    - {fileID: 8300000, guid: 458df6466e3444642a7e88de5ad14c13, type: 3}
  - soundType: {fileID: 11400000, guid: bcf9b761ad39dd74d9df33f8be797cc3, type: 2}
    sounds:
    - {fileID: 8300000, guid: 048516bdb5c28594eb5bfe4fccd788ea, type: 3}
    - {fileID: 8300000, guid: d423f85cab387ad429b26ea730faedcb, type: 3}
    - {fileID: 8300000, guid: 4eb69a572267308458c7a26a51806193, type: 3}
  - soundType: {fileID: 11400000, guid: 453eb2ce2186d7b49b713ab1cf7dd0c3, type: 2}
    sounds:
    - {fileID: 8300000, guid: 7d2f2dc2f7898394eaa7fe54f87ec173, type: 3}
    - {fileID: 8300000, guid: 911a414692f36c14d948d10a59be1a8e, type: 3}
    - {fileID: 8300000, guid: dc3dd45bf71e97145aab1412b25ab383, type: 3}
    - {fileID: 8300000, guid: 7f9a969cfe8365a4f91526247ed48818, type: 3}
  - soundType: {fileID: 11400000, guid: 0e04096fd785e644e9da739240fcba05, type: 2}
    sounds:
    - {fileID: 8300000, guid: 0a369e2aa24a27345812b230521aa9f9, type: 3}
    - {fileID: 8300000, guid: 7c30b0fd7e9aea841a2d26f8ed77f819, type: 3}
  - soundType: {fileID: 11400000, guid: 89bb819d8565ea04d981e571b41fd254, type: 2}
    sounds:
    - {fileID: 8300000, guid: 1eed311f0d4015743aacad81494f556f, type: 3}
  - soundType: {fileID: 11400000, guid: 805ebcb7cbf4c5840a6eedc9d8a72baa, type: 2}
    sounds:
    - {fileID: 8300000, guid: 134f1c194bf30704d94600b802653442, type: 3}
  userOptionSo: {fileID: 11400000, guid: afc3b0ab7eda6b8439b2bd597600db0a, type: 2}
