%YAML 1.1
%TAG !u! tag:unity3d.com,2011:
--- !u!114 &11400000
MonoBehaviour:
  m_ObjectHideFlags: 0
  m_CorrespondingSourceObject: {fileID: 0}
  m_PrefabInstance: {fileID: 0}
  m_PrefabAsset: {fileID: 0}
  m_GameObject: {fileID: 0}
  m_Enabled: 1
  m_EditorHideFlags: 0
  m_Script: {fileID: 11500000, guid: 8db1f08d2dc84dbc964467e25dbe2e29, type: 3}
  m_Name: level3_wave 2
  m_EditorClassIdentifier: 
  waveDelay: 25
  wavesEvents:
  - eventStartTime: 0
    entranceType: 0
    entityType: 0
    spawnCount: 8
    spawnDelay: 1
  - eventStartTime: 0
    entranceType: 1
    entityType: 3
    spawnCount: 8
    spawnDelay: 1
  - eventStartTime: 8
    entranceType: 2
    entityType: 4
    spawnCount: 2
    spawnDelay: 1
  - eventStartTime: 8
    entranceType: 1
    entityType: 4
    spawnCount: 2
    spawnDelay: 1
  - eventStartTime: 8
    entranceType: 0
    entityType: 4
    spawnCount: 2
    spawnDelay: 1
  - eventStartTime: 8
    entranceType: 2
    entityType: 0
    spawnCount: 5
    spawnDelay: 1
